^E:\VISUALSTUDIOPROJETCS\MEMORYLEAK1\MEMORYLEAK1\STDAFX.CPP
/c /ZI /nologo /W3 /WX- /sdl /Od /Oy- /D WIN32 /D _DEBUG /D _CONSOLE /D _UNICODE /D UNICODE /Gm /EHsc /RTC1 /MDd /GS /fp:precise /Zc:wchar_t /Zc:forScope /Zc:inline /Yc"stdafx.h" /Fp"DEBUG\MEMORYLEAK1.PCH" /Fo"DEBUG\\" /Fd"DEBUG\VC140.PDB" /Gd /TP /analyze- E:\VISUALSTUDIOPROJETCS\MEMORYLEAK1\MEMORYLEAK1\STDAFX.CPP
^E:\VISUALSTUDIOPROJETCS\MEMORYLEAK1\MEMORYLEAK1\MEMORYLEAK1.CPP
/c /ZI /nologo /W3 /WX- /sdl /Od /Oy- /D WIN32 /D _DEBUG /D _CONSOLE /D _UNICODE /D UNICODE /Gm /EHsc /RTC1 /MDd /GS /fp:precise /Zc:wchar_t /Zc:forScope /Zc:inline /Yu"stdafx.h" /Fp"DEBUG\MEMORYLEAK1.PCH" /Fo"DEBUG\\" /Fd"DEBUG\VC140.PDB" /Gd /TP /analyze- E:\VISUALSTUDIOPROJETCS\MEMORYLEAK1\MEMORYLEAK1\MEMORYLEAK1.CPP
^E:\VISUALSTUDIOPROJETCS\MEMORYLEAK1\MEMORYLEAK1\MYCLASS.CPP
/c /ZI /nologo /W3 /WX- /sdl /Od /Oy- /D WIN32 /D _DEBUG /D _CONSOLE /D _UNICODE /D UNICODE /Gm /EHsc /RTC1 /MDd /GS /fp:precise /Zc:wchar_t /Zc:forScope /Zc:inline /Yu"stdafx.h" /Fp"DEBUG\MEMORYLEAK1.PCH" /Fo"DEBUG\\" /Fd"DEBUG\VC140.PDB" /Gd /TP /analyze- E:\VISUALSTUDIOPROJETCS\MEMORYLEAK1\MEMORYLEAK1\MYCLASS.CPP
